TB/Adder_tb/tb_adder_generic.vcd
$date
	Mon Mar  9 10:36:25 2026
$end
$version
	QuestaSim Version 2021.2_1
$end
$timescale
	1ps
$end

$scope module tb_adder_generic $end
$var reg 8 ! OUT_0 [7:0] $end
$var reg 8 " OUT_1 [7:0] $end
$var reg 8 # OUT_2 [7:0] $end
$var reg 8 $ OUT_3 [7:0] $end
$var reg 8 % OUT_4 [7:0] $end
$var reg 8 & OUT_5 [7:0] $end

$scope module A0 $end
$upscope $end

$scope module A1 $end
$upscope $end

$scope module A2 $end
$upscope $end

$scope module A3 $end
$upscope $end

$scope module A4 $end
$upscope $end

$scope module A5 $end
$upscope $end
$upscope $end
$enddefinitions $end
#0
$dumpvars
b0 !
b0 "
b0 #
b0 $
b0 %
b0 &
$end
#1000
b1 $
b1 #
b1 !
b1 "
#2000
b10 $
b10 #
b10 !
b10 "
#3000
b11 $
b11 #
b11 !
b11 "
#4000
b100 $
b100 #
b100 !
b100 "
#5000
b101 $
b101 #
b101 !
b101 "
#6000
b110 $
b110 #
b110 !
b110 "
#7000
b111 $
b111 #
b111 !
b111 "
#8000
b1000 $
b1000 #
b1000 !
b1000 "
#9000
b1001 $
b1001 #
b1001 !
b1001 "
#10000
b1010 $
b1010 #
b1010 !
b1010 "
#11000
b1011 $
b1011 #
b1011 !
b1011 "
#12000
b1100 $
b1100 #
b1100 !
b1100 "
#13000
b1101 $
b1101 #
b1101 !
b1101 "
#14000
b1110 $
b1110 #
b1110 !
b1110 "
#15000
b1111 $
b1111 #
b1111 !
b1111 "
#16000
b1 $
b1 #
b1 !
b1 "
#17000
b10 #
b10 !
b10 "
#18000
b11 $
b11 #
b11 !
b11 "
#19000
b100 #
b100 !
b100 "
#20000
b101 $
b101 #
b101 !
b101 "
#21000
b110 #
b110 !
b110 "
#22000
b111 $
b111 #
b111 !
b111 "
#23000
b1000 #
b1000 !
b1000 "
#24000
b1001 $
b1001 #
b1001 !
b1001 "
#25000
b1010 #
b1010 !
b1010 "
#26000
b1011 $
b1011 #
b1011 !
b1011 "
#27000
b1100 #
b1100 !
b1100 "
#28000
b1101 $
b1101 #
b1101 !
b1101 "
#29000
b1110 #
b1110 !
b1110 "
#30000
b1111 $
b1111 #
b1111 !
b1111 "
#31000
b10000 #
b10000 !
b10000 "
#32000
b10 $
b10 #
b10 !
b10 "
#33000
b11 $
b11 #
b11 !
b11 "
#34000
b10 $
b100 #
b100 !
b100 "
#35000
b11 $
b101 #
b101 !
b101 "
#36000
b110 $
b110 #
b110 !
b110 "
#37000
b111 $
b111 #
b111 !
b111 "
#38000
b110 $
b1000 #
b1000 !
b1000 "
#39000
b111 $
b1001 #
b1001 !
b1001 "
#40000
b1010 $
b1010 #
b1010 !
b1010 "
#41000
b1011 $
b1011 #
b1011 !
b1011 "
#42000
b1010 $
b1100 #
b1100 !
b1100 "
#43000
b1011 $
b1101 #
b1101 !
b1101 "
#44000
b1110 $
b1110 #
b1110 !
b1110 "
#45000
b1111 $
b1111 #
b1111 !
b1111 "
#46000
b1110 $
b10000 #
b10000 !
b10000 "
#47000
b1111 $
b10001 #
b10001 !
b10001 "
#48000
b11 $
b11 #
b11 !
b11 "
#49000
b100 #
b100 !
b100 "
#50000
b101 #
b101 !
b101 "
#51000
b110 #
b110 !
b110 "
#52000
b111 $
b111 #
b111 !
b111 "
#53000
b1000 #
b1000 !
b1000 "
#54000
b1001 #
b1001 !
b1001 "
#55000
b1010 #
b1010 !
b1010 "
#56000
b1011 $
b1011 #
b1011 !
b1011 "
#57000
b1100 #
b1100 !
b1100 "
#58000
b1101 #
b1101 !
b1101 "
#59000
b1110 #
b1110 !
b1110 "
#60000
b1111 $
b1111 #
b1111 !
b1111 "
#61000
b10000 #
b10000 !
b10000 "
#62000
b10001 #
b10001 !
b10001 "
#63000
b10010 #
b10010 !
b10010 "
#64000
b100 $
b100 #
b100 !
b100 "
#65000
b101 $
b101 #
b101 !
b101 "
#66000
b110 $
b110 #
b110 !
b110 "
#67000
b111 $
b111 #
b111 !
b111 "
#68000
b100 $
b1000 #
b1000 !
b1000 "
#69000
b101 $
b1001 #
b1001 !
b1001 "
#70000
b110 $
b1010 #
b1010 !
b1010 "
#71000
b111 $
b1011 #
b1011 !
b1011 "
#72000
b1100 $
b1100 #
b1100 !
b1100 "
#73000
b1101 $
b1101 #
b1101 !
b1101 "
#74000
b1110 $
b1110 #
b1110 !
b1110 "
#75000
b1111 $
b1111 #
b1111 !
b1111 "
#76000
b1100 $
b10000 #
b10000 !
b10000 "
#77000
b1101 $
b10001 #
b10001 !
b10001 "
#78000
b1110 $
b10010 #
b10010 !
b10010 "
#79000
b1111 $
b10011 #
b10011 !
b10011 "
#80000
b101 $
b101 #
b101 !
b101 "
#81000
b110 #
b110 !
b110 "
#82000
b111 $
b111 #
b111 !
b111 "
#83000
b1000 #
b1000 !
b1000 "
#84000
b101 $
b1001 #
b1001 !
b1001 "
#85000
b1010 #
b1010 !
b1010 "
#86000
b111 $
b1011 #
b1011 !
b1011 "
#87000
b1100 #
b1100 !
b1100 "
#88000
b1101 $
b1101 #
b1101 !
b1101 "
#89000
b1110 #
b1110 !
b1110 "
#90000
b1111 $
b1111 #
b1111 !
b1111 "
#91000
b10000 #
b10000 !
b10000 "
#92000
b1101 $
b10001 #
b10001 !
b10001 "
#93000
b10010 #
b10010 !
b10010 "
#94000
b1111 $
b10011 #
b10011 !
b10011 "
#95000
b10100 #
b10100 !
b10100 "
#96000
b110 $
b110 #
b110 !
b110 "
#97000
b111 $
b111 #
b111 !
b111 "
#98000
b110 $
b1000 #
b1000 !
b1000 "
#99000
b111 $
b1001 #
b1001 !
b1001 "
#100000
b110 $
b1010 #
b1010 !
b1010 "
#101000
b111 $
b1011 #
b1011 !
b1011 "
#102000
b110 $
b1100 #
b1100 !
b1100 "
#103000
b111 $
b1101 #
b1101 !
b1101 "
#104000
b1110 $
b1110 #
b1110 !
b1110 "
#105000
b1111 $
b1111 #
b1111 !
b1111 "
#106000
b1110 $
b10000 #
b10000 !
b10000 "
#107000
b1111 $
b10001 #
b10001 !
b10001 "
#108000
b1110 $
b10010 #
b10010 !
b10010 "
#109000
b1111 $
b10011 #
b10011 !
b10011 "
#110000
b1110 $
b10100 #
b10100 !
b10100 "
#111000
b1111 $
b10101 #
b10101 !
b10101 "
#112000
b111 $
b111 #
b111 !
b111 "
#113000
b1000 #
b1000 !
b1000 "
#114000
b1001 #
b1001 !
b1001 "
#115000
b1010 #
b1010 !
b1010 "
#116000
b1011 #
b1011 !
b1011 "
#117000
b1100 #
b1100 !
b1100 "
#118000
b1101 #
b1101 !
b1101 "
#119000
b1110 #
b1110 !
b1110 "
#120000
b1111 $
b1111 #
b1111 !
b1111 "
#121000
b10000 #
b10000 !
b10000 "
#122000
b10001 #
b10001 !
b10001 "
#123000
b10010 #
b10010 !
b10010 "
#124000
b10011 #
b10011 !
b10011 "
#125000
b10100 #
b10100 !
b10100 "
#126000
b10101 #
b10101 !
b10101 "
#127000
b10110 #
b10110 !
b10110 "
#128000
b11111000 $
b11111000 #
b11111000 !
b11110000 &
b11110000 %
b11111000 "
#129000
b11111001 $
b11111001 #
b11111001 !
b11111001 "
#130000
b11111010 $
b11111010 #
b11111010 !
b11111010 "
#131000
b11111011 $
b11111011 #
b11111011 !
b11111011 "
#132000
b11111100 $
b11111100 #
b11111100 !
b11111100 "
#133000
b11111101 $
b11111101 #
b11111101 !
b11111101 "
#134000
b11111110 $
b11111110 #
b11111110 !
b11111110 "
#135000
b11111111 $
b11111111 #
b11111111 !
b11111111 "
#136000
b1000 $
b0 #
b0 !
b0 "
#137000
b1001 $
b1 #
b1 !
b1 "
#138000
b1010 $
b10 #
b10 !
b10 "
#139000
b1011 $
b11 #
b11 !
b11 "
#140000
b1100 $
b100 #
b100 !
b100 "
#141000
b1101 $
b101 #
b101 !
b101 "
#142000
b1110 $
b110 #
b110 !
b110 "
#143000
b1111 $
b111 #
b111 !
b111 "
#144000
b11111001 $
b11111001 #
b11111001 !
b11111001 "
#145000
b11111010 #
b11111010 !
b11111010 "
#146000
b11111011 $
b11111011 #
b11111011 !
b11111011 "
#147000
b11111100 #
b11111100 !
b11111100 "
#148000
b11111101 $
b11111101 #
b11111101 !
b11111101 "
#149000
b11111110 #
b11111110 !
b11111110 "
#150000
b11111111 $
b11111111 #
b11111111 !
b11111111 "
#151000
b0 #
b0 !
b0 "
#152000
b1001 $
b1 #
b1 !
b1 "
#153000
b10 #
b10 !
b10 "
#154000
b1011 $
b11 #
b11 !
b11 "
#155000
b100 #
b100 !
b100 "
#156000
b1101 $
b101 #
b101 !
b101 "
#157000
b110 #
b110 !
b110 "
#158000
b1111 $
b111 #
b111 !
b111 "
#159000
b1000 #
b1000 !
b1000 "
#160000
b11111010 $
b11111010 #
b11111010 !
b11111010 "
#161000
b11111011 $
b11111011 #
b11111011 !
b11111011 "
#162000
b11111010 $
b11111100 #
b11111100 !
b11111100 "
#163000
b11111011 $
b11111101 #
b11111101 !
b11111101 "
#164000
b11111110 $
b11111110 #
b11111110 !
b11111110 "
#165000
b11111111 $
b11111111 #
b11111111 !
b11111111 "
#166000
b11111110 $
b0 #
b0 !
b0 "
#167000
b11111111 $
b1 #
b1 !
b1 "
#168000
b1010 $
b10 #
b10 !
b10 "
#169000
b1011 $
b11 #
b11 !
b11 "
#170000
b1010 $
b100 #
b100 !
b100 "
#171000
b1011 $
b101 #
b101 !
b101 "
#172000
b1110 $
b110 #
b110 !
b110 "
#173000
b1111 $
b111 #
b111 !
b111 "
#174000
b1110 $
b1000 #
b1000 !
b1000 "
#175000
b1111 $
b1001 #
b1001 !
b1001 "
#176000
b11111011 $
b11111011 #
b11111011 !
b11111011 "
#177000
b11111100 #
b11111100 !
b11111100 "
#178000
b11111101 #
b11111101 !
b11111101 "
#179000
b11111110 #
b11111110 !
b11111110 "
#180000
b11111111 $
b11111111 #
b11111111 !
b11111111 "
#181000
b0 #
b0 !
b0 "
#182000
b1 #
b1 !
b1 "
#183000
b10 #
b10 !
b10 "
#184000
b1011 $
b11 #
b11 !
b11 "
#185000
b100 #
b100 !
b100 "
#186000
b101 #
b101 !
b101 "
#187000
b110 #
b110 !
b110 "
#188000
b1111 $
b111 #
b111 !
b111 "
#189000
b1000 #
b1000 !
b1000 "
#190000
b1001 #
b1001 !
b1001 "
#191000
b1010 #
b1010 !
b1010 "
#192000
b11111100 $
b11111100 #
b11111100 !
b11111100 "
#193000
b11111101 $
b11111101 #
b11111101 !
b11111101 "
#194000
b11111110 $
b11111110 #
b11111110 !
b11111110 "
#195000
b11111111 $
b11111111 #
b11111111 !
b11111111 "
#196000
b11111100 $
b0 #
b0 !
b0 "
#197000
b11111101 $
b1 #
b1 !
b1 "
#198000
b11111110 $
b10 #
b10 !
b10 "
#199000
b11111111 $
b11 #
b11 !
b11 "
#200000
b1100 $
b100 #
b100 !
b100 "
#201000
b1101 $
b101 #
b101 !
b101 "
#202000
b1110 $
b110 #
b110 !
b110 "
#203000
b1111 $
b111 #
b111 !
b111 "
#204000
b1100 $
b1000 #
b1000 !
b1000 "
#205000
b1101 $
b1001 #
b1001 !
b1001 "
#206000
b1110 $
b1010 #
b1010 !
b1010 "
#207000
b1111 $
b1011 #
b1011 !
b1011 "
#208000
b11111101 $
b11111101 #
b11111101 !
b11111101 "
#209000
b11111110 #
b11111110 !
b11111110 "
#210000
b11111111 $
b11111111 #
b11111111 !
b11111111 "
#211000
b0 #
b0 !
b0 "
#212000
b11111101 $
b1 #
b1 !
b1 "
#213000
b10 #
b10 !
b10 "
#214000
b11111111 $
b11 #
b11 !
b11 "
#215000
b100 #
b100 !
b100 "
#216000
b1101 $
b101 #
b101 !
b101 "
#217000
b110 #
b110 !
b110 "
#218000
b1111 $
b111 #
b111 !
b111 "
#219000
b1000 #
b1000 !
b1000 "
#220000
b1101 $
b1001 #
b1001 !
b1001 "
#221000
b1010 #
b1010 !
b1010 "
#222000
b1111 $
b1011 #
b1011 !
b1011 "
#223000
b1100 #
b1100 !
b1100 "
#224000
b11111110 $
b11111110 #
b11111110 !
b11111110 "
#225000
b11111111 $
b11111111 #
b11111111 !
b11111111 "
#226000
b11111110 $
b0 #
b0 !
b0 "
#227000
b11111111 $
b1 #
b1 !
b1 "
#228000
b11111110 $
b10 #
b10 !
b10 "
#229000
b11111111 $
b11 #
b11 !
b11 "
#230000
b11111110 $
b100 #
b100 !
b100 "
#231000
b11111111 $
b101 #
b101 !
b101 "
#232000
b1110 $
b110 #
b110 !
b110 "
#233000
b1111 $
b111 #
b111 !
b111 "
#234000
b1110 $
b1000 #
b1000 !
b1000 "
#235000
b1111 $
b1001 #
b1001 !
b1001 "
#236000
b1110 $
b1010 #
b1010 !
b1010 "
#237000
b1111 $
b1011 #
b1011 !
b1011 "
#238000
b1110 $
b1100 #
b1100 !
b1100 "
#239000
b1111 $
b1101 #
b1101 !
b1101 "
#240000
b11111111 $
b11111111 #
b11111111 !
b11111111 "
#241000
b0 #
b0 !
b0 "
#242000
b1 #
b1 !
b1 "
#243000
b10 #
b10 !
b10 "
#244000
b11 #
b11 !
b11 "
#245000
b100 #
b100 !
b100 "
#246000
b101 #
b101 !
b101 "
#247000
b110 #
b110 !
b110 "
#248000
b1111 $
b111 #
b111 !
b111 "
#249000
b1000 #
b1000 !
b1000 "
#250000
b1001 #
b1001 !
b1001 "
#251000
b1010 #
b1010 !
b1010 "
#252000
b1011 #
b1011 !
b1011 "
#253000
b1100 #
b1100 !
b1100 "
#254000
b1101 #
b1101 !
b1101 "
#255000
b1110 #
b1110 !
b1110 "
