TB/Adder_tb/tb_adder_gear_2c.vcd
$date
	Mon Mar 16 15:05:57 2026
$end
$version
	QuestaSim Version 2021.2_1
$end
$timescale
	1ps
$end

$scope module tb_adder_gear_2c $end
$var reg 16 ! OUT_1 [15:0] $end

$scope task display_result $end
$upscope $end

$scope module dut $end

$scope begin subadders[2] $end

$scope begin genblk1 $end

$scope begin and_bits $end
$upscope $end
$upscope $end
$upscope $end

$scope begin subadders[1] $end

$scope begin genblk1 $end

$scope begin and_bits $end
$upscope $end
$upscope $end
$upscope $end

$scope begin subadders[0] $end
$upscope $end
$upscope $end

$scope module uut $end
$upscope $end
$upscope $end
$enddefinitions $end
#0
$dumpvars
b1011000010100110 !
$end
#10000
b1001000010100110 !
b1001110111100100 !
#20000
b111110111100100 !
b111011111010100 !
#30000
b11111010100 !
b1101101000 !
#40000
b1001001101101000 !
b1001101001101001 !
#50000
b1110101001101001 !
b1110111011100110 !
#60000
b1111011100110 !
b1010110001101 !
#70000
b1010010110001101 !
b1010111011010001 !
#80000
b1100111011010001 !
b1100001011110011 !
#90000
b1100011010101000 !
#100000
b11010101000 !
b101011001011 !
#110000
b1101101011001011 !
b1101110110110010 !
#120000
b1010110110110010 !
b1010110011010110 !
#130000
b1100110011010110 !
b1100001010101111 !
#140000
b110001010101111 !
b110101110101011 !
#150000
b110010111100111 !
#160000
b10010111100111 !
b10010011000001 !
#170000
b1001010011000001 !
b1001011001010110 !
#180000
b1011011001010110 !
b1011001100101010 !
#190000
b111001100101010 !
b111111100011111 !
#200000
b110111100011111 !
b110110110110100 !
#210000
b110110001110001 !
#220000
b1010110001110001 !
b1010100000011101 !
#230000
b1101100000011101 !
b1101010111001111 !
#240000
b111010111001111 !
b111001000001000 !
#250000
b10001000001000 !
b10100100100011 !
#260000
b111100100100011 !
b111000111000001 !
#270000
b1011000111000001 !
b1011010111111011 !
#280000
b110010111111011 !
b110111101011100 !
#290000
b11111101011100 !
b11111011010110 !
#300000
b111111011010110 !
b111001010011011 !
#310000
b10001010011011 !
b10011101111101 !
#320000
b110011101111101 !
b110110001011011 !
#330000
b10110001011011 !
b10110110110000 !
#340000
b10001011100011 !
#350000
b1111001011100011 !
b1111111000001110 !
#360000
b1011111000001110 !
b1011000011011011 !
#370000
b1001000011011011 !
b1001101000111100 !
#380000
b1100101000111100 !
b1100010001111001 !
#390000
b111010001111001 !
b111001011100110 !
#400000
b1011100110 !
b100100001000 !
#410000
b1100100001000 !
b1010010100111 !
#420000
b100010010100111 !
b100110000010010 !
#430000
b1010110000010010 !
b1010100110001001 !
#440000
b100110001001 !
b111000001100 !
#450000
b101010110 !
#460000
b11000101010110 !
b11010010101110 !
#470000
b10010101110 !
b110010111010 !
#480000
b1111110010111010 !
b1111011011010001 !
#490000
b1101011011010001 !
b1101110111110011 !
#500000
b1100110111110011 !
b1100111000101100 !
#510000
b111000101100 !
b100111100110 !
#520000
b1000100111100110 !
b1000000111011010 !
#530000
b1011000111011010 !
b1011011100000100 !
#540000
b1011100000100 !
b1111101101101 !
b111101101101 !
#550000
b11111101101101 !
b11010001010100 !
#560000
b1010001010100 !
b1100111000001 !
#570000
b1010100111000001 !
b1010000011101110 !
#580000
b1000011101110 !
b111111110110 !
#590000
b1111111111110110 !
b1111000111011101 !
#600000
b111000111011101 !
b111001000010111 !
#610000
b1001000010111 !
b1100000101101 !
#620000
b101100000101101 !
b101011010110001 !
#630000
b1110011010110001 !
b1110100100011101 !
#640000
b111100100011101 !
b111000011011011 !
#650000
b11000011011011 !
b11110001100100 !
#660000
b101110001100100 !
b101110001111101 !
#670000
b1110110001111101 !
b1110010010111101 !
#680000
b101010010111101 !
b101000110010001 !
#690000
b10000110010001 !
b10111011000010 !
#700000
b1100111011000010 !
b1100110000010000 !
#710000
b111110000010000 !
b111101011110011 !
#720000
b100101011110011 !
b100001001100011 !
#730000
b1010001001100011 !
b1010100010001100 !
#740000
b1100100010001100 !
b1100000011010101 !
#750000
b1000000011010101 !
b111111101101010 !
#760000
b1010111101101010 !
b1010111001001010 !
#770000
b1100111001001010 !
b1100001110111011 !
#780000
b101001110111011 !
b101101111100000 !
#790000
b101110101100010 !
#800000
b1110101100010 !
b1010000010010 !
#810000
b110010000010010 !
b110011110001000 !
#820000
b111011110001000 !
b111010011000111 !
#830000
b1011010011000111 !
b1011101111100000 !
#840000
b1011110000101100 !
#850000
b110000101100 !
b101110010100 !
#860000
b111101110010100 !
b111110110010101 !
#870000
b1001110110010101 !
b1001100011010110 !
#880000
b111100011010110 !
b111100111000101 !
#890000
b10100111000101 !
b10000011011111 !
#900000
b1000000011011111 !
b1000100101110111 !
#910000
b1101100101110111 !
b1101110000100110 !
#920000
b1111110000100110 !
b1111110100110000 !
#930000
b110100110000 !
b11001110100 !
#940000
b101011001110100 !
b101101000101011 !
#950000
b1000101000101011 !
b1000001011110111 !
#960000
b1011110111 !
b10100000101 !
#970000
b110010100000101 !
b110111110100000 !
#980000
b101111110100000 !
b101011011010011 !
#990000
b110011011010011 !
b110100000100000 !
